{
  "sitecore": {
    "instancePath": "C:\\inetpub\\wwwroot\\toyota92\\Website",
    "layoutServiceHost": "http://toyota-react-jss-app.dev.local",
    "deployUrl": "http://toyota-react-jss-app.dev.local/sitecore/api/jss/import",
    "apiKey": "{F10FC3CF-7794-44E2-84A1-89CE0EF7D3CE}",
    "deploySecret": "8bwj04n7h970mohviyqk1jr0y7kunh8qj2ff37vkaenps"
  }
}