{
	"name": "home",
	"displayName": "Home",
	"placeholders": {
		"jss-main": [
			{
				"componentName": "DemoComponent",
				"fields": {
					"heading": {
						"value": "Image"
					},
					"bannerImage": {
						"value": {
							"src":"/data/media/img/Interior.jpg",
						 	"alt": "Sitecore Logo"
						}
					}
				}
			}
		]
	}
}